Info: Starting: Create block symbol file (.bsf)
Info: ip-generate --project-directory=F:/Dropbox/Dropbox/Skripsi/NIOSAESALTERAENKRIPSI/ --output-directory=F:/Dropbox/Dropbox/Skripsi/NIOSAESALTERAENKRIPSI/niosForAES/ --report-file=bsf:F:/Dropbox/Dropbox/Skripsi/NIOSAESALTERAENKRIPSI/niosForAES.bsf --system-info=DEVICE_FAMILY="Cyclone IV E" --system-info=DEVICE=EP4CE22F17C6 --system-info=DEVICE_SPEEDGRADE=6 --component-file=F:/Dropbox/Dropbox/Skripsi/NIOSAESALTERAENKRIPSI/niosForAES.qsys
Progress: Loading NIOSAESALTERAENKRIPSI/niosForAES.qsys
Progress: Reading input file
Progress: Adding clk_0 [clock_source 13.1]
Progress: Parameterizing module clk_0
Progress: Adding niosProcessorAES [altera_nios2_qsys 13.1]
Progress: Parameterizing module niosProcessorAES
Progress: Adding onchip_RAM [altera_avalon_onchip_memory2 13.1]
Progress: Parameterizing module onchip_RAM
Progress: Adding onchip_ROM [altera_avalon_onchip_memory2 13.1]
Progress: Parameterizing module onchip_ROM
Progress: Adding jtag_uart [altera_avalon_jtag_uart 13.1]
Progress: Parameterizing module jtag_uart
Progress: Adding timer_AES [altera_avalon_timer 13.1]
Progress: Parameterizing module timer_AES
Progress: Adding input3_AES [altera_avalon_pio 13.1]
Progress: Parameterizing module input3_AES
Progress: Adding input2_AES [altera_avalon_pio 13.1]
Progress: Parameterizing module input2_AES
Progress: Adding input1_AES [altera_avalon_pio 13.1]
Progress: Parameterizing module input1_AES
Progress: Adding input0_AES [altera_avalon_pio 13.1]
Progress: Parameterizing module input0_AES
Progress: Adding key3_AES [altera_avalon_pio 13.1]
Progress: Parameterizing module key3_AES
Progress: Adding key2_AES [altera_avalon_pio 13.1]
Progress: Parameterizing module key2_AES
Progress: Adding key1_AES [altera_avalon_pio 13.1]
Progress: Parameterizing module key1_AES
Progress: Adding key0_AES [altera_avalon_pio 13.1]
Progress: Parameterizing module key0_AES
Progress: Adding output3_AES [altera_avalon_pio 13.1]
Progress: Parameterizing module output3_AES
Progress: Adding output2_AES [altera_avalon_pio 13.1]
Progress: Parameterizing module output2_AES
Progress: Adding output1_AES [altera_avalon_pio 13.1]
Progress: Parameterizing module output1_AES
Progress: Adding output0_AES [altera_avalon_pio 13.1]
Progress: Parameterizing module output0_AES
Progress: Adding done [altera_avalon_pio 13.1]
Progress: Parameterizing module done
Progress: Adding altpll_0 [altpll 13.1]
Progress: Parameterizing module altpll_0
Progress: Building connections
Progress: Parameterizing connections
Progress: Validating
Progress: Done reading input file
Info: niosForAES.output0_AES: PIO inputs are not hardwired in test bench. Undefined values will be read from PIO inputs during simulation.
Info: niosForAES.done: PIO inputs are not hardwired in test bench. Undefined values will be read from PIO inputs during simulation.
Warning: niosForAES.jtag_uart: Interrupt sender jtag_uart.irq is not connected to an interrupt receiver
Warning: niosForAES.timer_AES: Interrupt sender timer_AES.irq is not connected to an interrupt receiver
Info: ip-generate succeeded.
Info: Finished: Create block symbol file (.bsf)
Info: 
Info: Starting: Create HDL design files for synthesis
Info: ip-generate --project-directory=F:/Dropbox/Dropbox/Skripsi/NIOSAESALTERAENKRIPSI/ --output-directory=F:/Dropbox/Dropbox/Skripsi/NIOSAESALTERAENKRIPSI/niosForAES/synthesis/ --file-set=QUARTUS_SYNTH --report-file=html:F:/Dropbox/Dropbox/Skripsi/NIOSAESALTERAENKRIPSI/niosForAES.html --report-file=sopcinfo:F:/Dropbox/Dropbox/Skripsi/NIOSAESALTERAENKRIPSI/niosForAES.sopcinfo --report-file=cmp:F:/Dropbox/Dropbox/Skripsi/NIOSAESALTERAENKRIPSI/niosForAES.cmp --report-file=qip:F:/Dropbox/Dropbox/Skripsi/NIOSAESALTERAENKRIPSI/niosForAES/synthesis/niosForAES.qip --report-file=svd --report-file=regmap:F:/Dropbox/Dropbox/Skripsi/NIOSAESALTERAENKRIPSI/niosForAES/synthesis/niosForAES.regmap --report-file=debuginfo:F:/Dropbox/Dropbox/Skripsi/NIOSAESALTERAENKRIPSI/niosForAES/synthesis/niosForAES.debuginfo --system-info=DEVICE_FAMILY="Cyclone IV E" --system-info=DEVICE=EP4CE22F17C6 --system-info=DEVICE_SPEEDGRADE=6 --component-file=F:/Dropbox/Dropbox/Skripsi/NIOSAESALTERAENKRIPSI/niosForAES.qsys --language=VERILOG
Progress: Loading NIOSAESALTERAENKRIPSI/niosForAES.qsys
Progress: Reading input file
Progress: Adding clk_0 [clock_source 13.1]
Progress: Parameterizing module clk_0
Progress: Adding niosProcessorAES [altera_nios2_qsys 13.1]
Progress: Parameterizing module niosProcessorAES
Progress: Adding onchip_RAM [altera_avalon_onchip_memory2 13.1]
Progress: Parameterizing module onchip_RAM
Progress: Adding onchip_ROM [altera_avalon_onchip_memory2 13.1]
Progress: Parameterizing module onchip_ROM
Progress: Adding jtag_uart [altera_avalon_jtag_uart 13.1]
Progress: Parameterizing module jtag_uart
Progress: Adding timer_AES [altera_avalon_timer 13.1]
Progress: Parameterizing module timer_AES
Progress: Adding input3_AES [altera_avalon_pio 13.1]
Progress: Parameterizing module input3_AES
Progress: Adding input2_AES [altera_avalon_pio 13.1]
Progress: Parameterizing module input2_AES
Progress: Adding input1_AES [altera_avalon_pio 13.1]
Progress: Parameterizing module input1_AES
Progress: Adding input0_AES [altera_avalon_pio 13.1]
Progress: Parameterizing module input0_AES
Progress: Adding key3_AES [altera_avalon_pio 13.1]
Progress: Parameterizing module key3_AES
Progress: Adding key2_AES [altera_avalon_pio 13.1]
Progress: Parameterizing module key2_AES
Progress: Adding key1_AES [altera_avalon_pio 13.1]
Progress: Parameterizing module key1_AES
Progress: Adding key0_AES [altera_avalon_pio 13.1]
Progress: Parameterizing module key0_AES
Progress: Adding output3_AES [altera_avalon_pio 13.1]
Progress: Parameterizing module output3_AES
Progress: Adding output2_AES [altera_avalon_pio 13.1]
Progress: Parameterizing module output2_AES
Progress: Adding output1_AES [altera_avalon_pio 13.1]
Progress: Parameterizing module output1_AES
Progress: Adding output0_AES [altera_avalon_pio 13.1]
Progress: Parameterizing module output0_AES
Progress: Adding done [altera_avalon_pio 13.1]
Progress: Parameterizing module done
Progress: Adding altpll_0 [altpll 13.1]
Progress: Parameterizing module altpll_0
Progress: Building connections
Progress: Parameterizing connections
Progress: Validating
Progress: Done reading input file
Info: niosForAES.output0_AES: PIO inputs are not hardwired in test bench. Undefined values will be read from PIO inputs during simulation.
Info: niosForAES.done: PIO inputs are not hardwired in test bench. Undefined values will be read from PIO inputs during simulation.
Warning: niosForAES.jtag_uart: Interrupt sender jtag_uart.irq is not connected to an interrupt receiver
Warning: niosForAES.timer_AES: Interrupt sender timer_AES.irq is not connected to an interrupt receiver
Info: niosForAES: Generating niosForAES "niosForAES" for QUARTUS_SYNTH
Info: pipeline_bridge_swap_transform: After transform: 10 modules, 38 connections
Info: No custom instruction connections, skipping transform 
Info: merlin_initial_interconnect_transform: After transform: 10 modules, 38 connections
Info: merlin_translator_transform: After transform: 21 modules, 82 connections
Info: merlin_domain_transform: After transform: 42 modules, 224 connections
Info: merlin_router_transform: After transform: 53 modules, 268 connections
Info: merlin_network_to_switch_transform: After transform: 74 modules, 323 connections
Info: merlin_clock_and_reset_bridge_transform: After transform: 76 modules, 398 connections
Info: merlin_hierarchy_transform: After transform: 11 modules, 41 connections
Info: merlin_mm_transform: After transform: 11 modules, 41 connections
Info: merlin_interrupt_mapper_transform: After transform: 12 modules, 45 connections
Info: reset_adaptation_transform: After transform: 14 modules, 46 connections
Info: niosProcessorAES: Starting RTL generation for module 'niosForAES_niosProcessorAES'
Info: niosProcessorAES:   Generation command is [exec C:/altera/13.1/quartus/bin/eperlcmd.exe -I C:/altera/13.1/quartus/bin/perl/lib -I C:/altera/13.1/quartus/sopc_builder/bin/europa -I C:/altera/13.1/quartus/sopc_builder/bin/perl_lib -I C:/altera/13.1/quartus/sopc_builder/bin -I C:/altera/13.1/quartus/../ip/altera/nios2_ip/altera_nios2/cpu_lib -I C:/altera/13.1/quartus/../ip/altera/nios2_ip/altera_nios2/nios_lib -I C:/altera/13.1/quartus/../ip/altera/nios2_ip/altera_nios2 -I C:/altera/13.1/quartus/../ip/altera/nios2_ip/altera_nios2 -- C:/altera/13.1/quartus/../ip/altera/nios2_ip/altera_nios2/generate_rtl.epl --name=niosForAES_niosProcessorAES --dir=C:/Users/YOGABU~1/AppData/Local/Temp/alt6770_716670426077522120.dir/0001_niosProcessorAES_gen/ --quartus_dir=C:/altera/13.1/quartus --verilog --config=C:/Users/YOGABU~1/AppData/Local/Temp/alt6770_716670426077522120.dir/0001_niosProcessorAES_gen//niosForAES_niosProcessorAES_processor_configuration.pl  --do_build_sim=0  ]
Info: niosProcessorAES: # 2015.12.01 16:49:33 (*) Starting Nios II generation
Info: niosProcessorAES: # 2015.12.01 16:49:33 (*)   Checking for plaintext license.
Info: niosProcessorAES: # 2015.12.01 16:49:36 (*)   Couldn't query license setup in Quartus directory C:/altera/13.1/quartus
Info: niosProcessorAES: # 2015.12.01 16:49:36 (*)   Defaulting to contents of LM_LICENSE_FILE environment variable
Info: niosProcessorAES: # 2015.12.01 16:49:36 (*)   LM_LICENSE_FILE environment variable is empty
Info: niosProcessorAES: # 2015.12.01 16:49:36 (*)   Plaintext license not found.
Info: niosProcessorAES: # 2015.12.01 16:49:36 (*)   No license required to generate encrypted Nios II/e.
Info: niosProcessorAES: # 2015.12.01 16:49:36 (*)   Elaborating CPU configuration settings
Info: niosProcessorAES: # 2015.12.01 16:49:36 (*)   Creating all objects for CPU
Info: niosProcessorAES: # 2015.12.01 16:49:38 (*)   Generating RTL from CPU objects
Info: niosProcessorAES: # 2015.12.01 16:49:38 (*)   Creating plain-text RTL
Info: niosProcessorAES: # 2015.12.01 16:49:41 (*) Done Nios II generation
Info: niosProcessorAES: Done RTL generation for module 'niosForAES_niosProcessorAES'
Info: niosProcessorAES: "niosForAES" instantiated altera_nios2_qsys "niosProcessorAES"
Info: onchip_RAM: Starting RTL generation for module 'niosForAES_onchip_RAM'
Info: onchip_RAM:   Generation command is [exec C:/altera/13.1/quartus/bin/perl/bin/perl.exe -I C:/altera/13.1/quartus/bin/perl/lib -I C:/altera/13.1/quartus/sopc_builder/bin/europa -I C:/altera/13.1/quartus/sopc_builder/bin/perl_lib -I C:/altera/13.1/quartus/sopc_builder/bin -I C:/altera/13.1/quartus/../ip/altera/sopc_builder_ip/common -I C:/altera/13.1/quartus/../ip/altera/sopc_builder_ip/altera_avalon_onchip_memory2 -- C:/altera/13.1/quartus/../ip/altera/sopc_builder_ip/altera_avalon_onchip_memory2/generate_rtl.pl --name=niosForAES_onchip_RAM --dir=C:/Users/YOGABU~1/AppData/Local/Temp/alt6770_716670426077522120.dir/0002_onchip_RAM_gen/ --quartus_dir=C:/altera/13.1/quartus --verilog --config=C:/Users/YOGABU~1/AppData/Local/Temp/alt6770_716670426077522120.dir/0002_onchip_RAM_gen//niosForAES_onchip_RAM_component_configuration.pl  --do_build_sim=0  ]
Info: onchip_RAM: Done RTL generation for module 'niosForAES_onchip_RAM'
Info: onchip_RAM: "niosForAES" instantiated altera_avalon_onchip_memory2 "onchip_RAM"
Info: onchip_ROM: Starting RTL generation for module 'niosForAES_onchip_ROM'
Info: onchip_ROM:   Generation command is [exec C:/altera/13.1/quartus/bin/perl/bin/perl.exe -I C:/altera/13.1/quartus/bin/perl/lib -I C:/altera/13.1/quartus/sopc_builder/bin/europa -I C:/altera/13.1/quartus/sopc_builder/bin/perl_lib -I C:/altera/13.1/quartus/sopc_builder/bin -I C:/altera/13.1/quartus/../ip/altera/sopc_builder_ip/common -I C:/altera/13.1/quartus/../ip/altera/sopc_builder_ip/altera_avalon_onchip_memory2 -- C:/altera/13.1/quartus/../ip/altera/sopc_builder_ip/altera_avalon_onchip_memory2/generate_rtl.pl --name=niosForAES_onchip_ROM --dir=C:/Users/YOGABU~1/AppData/Local/Temp/alt6770_716670426077522120.dir/0003_onchip_ROM_gen/ --quartus_dir=C:/altera/13.1/quartus --verilog --config=C:/Users/YOGABU~1/AppData/Local/Temp/alt6770_716670426077522120.dir/0003_onchip_ROM_gen//niosForAES_onchip_ROM_component_configuration.pl  --do_build_sim=0  ]
Info: onchip_ROM: Done RTL generation for module 'niosForAES_onchip_ROM'
Info: onchip_ROM: "niosForAES" instantiated altera_avalon_onchip_memory2 "onchip_ROM"
Info: jtag_uart: Starting RTL generation for module 'niosForAES_jtag_uart'
Info: jtag_uart:   Generation command is [exec C:/altera/13.1/quartus/bin/perl/bin/perl.exe -I C:/altera/13.1/quartus/bin/perl/lib -I C:/altera/13.1/quartus/sopc_builder/bin/europa -I C:/altera/13.1/quartus/sopc_builder/bin/perl_lib -I C:/altera/13.1/quartus/sopc_builder/bin -I C:/altera/13.1/quartus/../ip/altera/sopc_builder_ip/common -I C:/altera/13.1/quartus/../ip/altera/sopc_builder_ip/altera_avalon_jtag_uart -- C:/altera/13.1/quartus/../ip/altera/sopc_builder_ip/altera_avalon_jtag_uart/generate_rtl.pl --name=niosForAES_jtag_uart --dir=C:/Users/YOGABU~1/AppData/Local/Temp/alt6770_716670426077522120.dir/0004_jtag_uart_gen/ --quartus_dir=C:/altera/13.1/quartus --verilog --config=C:/Users/YOGABU~1/AppData/Local/Temp/alt6770_716670426077522120.dir/0004_jtag_uart_gen//niosForAES_jtag_uart_component_configuration.pl  --do_build_sim=0  ]
Info: jtag_uart: Done RTL generation for module 'niosForAES_jtag_uart'
Info: jtag_uart: "niosForAES" instantiated altera_avalon_jtag_uart "jtag_uart"
Info: timer_AES: Starting RTL generation for module 'niosForAES_timer_AES'
Info: timer_AES:   Generation command is [exec C:/altera/13.1/quartus/bin//perl/bin/perl.exe -I C:/altera/13.1/quartus/bin//perl/lib -I C:/altera/13.1/quartus/sopc_builder/bin/europa -I C:/altera/13.1/quartus/sopc_builder/bin/perl_lib -I C:/altera/13.1/quartus/sopc_builder/bin -I C:/altera/13.1/quartus/../ip/altera/sopc_builder_ip/common -I C:/altera/13.1/quartus/../ip/altera/sopc_builder_ip/altera_avalon_timer -- C:/altera/13.1/quartus/../ip/altera/sopc_builder_ip/altera_avalon_timer/generate_rtl.pl --name=niosForAES_timer_AES --dir=C:/Users/YOGABU~1/AppData/Local/Temp/alt6770_716670426077522120.dir/0005_timer_AES_gen/ --quartus_dir=C:/altera/13.1/quartus --verilog --config=C:/Users/YOGABU~1/AppData/Local/Temp/alt6770_716670426077522120.dir/0005_timer_AES_gen//niosForAES_timer_AES_component_configuration.pl  --do_build_sim=0  ]
Info: timer_AES: Done RTL generation for module 'niosForAES_timer_AES'
Info: timer_AES: "niosForAES" instantiated altera_avalon_timer "timer_AES"
Info: input0_AES: Starting RTL generation for module 'niosForAES_input0_AES'
Info: input0_AES:   Generation command is [exec C:/altera/13.1/quartus/bin/perl/bin/perl.exe -I C:/altera/13.1/quartus/bin/perl/lib -I C:/altera/13.1/quartus/sopc_builder/bin/europa -I C:/altera/13.1/quartus/sopc_builder/bin/perl_lib -I C:/altera/13.1/quartus/sopc_builder/bin -I C:/altera/13.1/quartus/../ip/altera/sopc_builder_ip/common -I C:/altera/13.1/quartus/../ip/altera/sopc_builder_ip/altera_avalon_pio -- C:/altera/13.1/quartus/../ip/altera/sopc_builder_ip/altera_avalon_pio/generate_rtl.pl --name=niosForAES_input0_AES --dir=C:/Users/YOGABU~1/AppData/Local/Temp/alt6770_716670426077522120.dir/0006_input0_AES_gen/ --quartus_dir=C:/altera/13.1/quartus --verilog --config=C:/Users/YOGABU~1/AppData/Local/Temp/alt6770_716670426077522120.dir/0006_input0_AES_gen//niosForAES_input0_AES_component_configuration.pl  --do_build_sim=0  ]
Info: input0_AES: Done RTL generation for module 'niosForAES_input0_AES'
Info: input0_AES: "niosForAES" instantiated altera_avalon_pio "input0_AES"
Info: output0_AES: Starting RTL generation for module 'niosForAES_output0_AES'
Info: output0_AES:   Generation command is [exec C:/altera/13.1/quartus/bin/perl/bin/perl.exe -I C:/altera/13.1/quartus/bin/perl/lib -I C:/altera/13.1/quartus/sopc_builder/bin/europa -I C:/altera/13.1/quartus/sopc_builder/bin/perl_lib -I C:/altera/13.1/quartus/sopc_builder/bin -I C:/altera/13.1/quartus/../ip/altera/sopc_builder_ip/common -I C:/altera/13.1/quartus/../ip/altera/sopc_builder_ip/altera_avalon_pio -- C:/altera/13.1/quartus/../ip/altera/sopc_builder_ip/altera_avalon_pio/generate_rtl.pl --name=niosForAES_output0_AES --dir=C:/Users/YOGABU~1/AppData/Local/Temp/alt6770_716670426077522120.dir/0007_output0_AES_gen/ --quartus_dir=C:/altera/13.1/quartus --verilog --config=C:/Users/YOGABU~1/AppData/Local/Temp/alt6770_716670426077522120.dir/0007_output0_AES_gen//niosForAES_output0_AES_component_configuration.pl  --do_build_sim=0  ]
Info: output0_AES: Done RTL generation for module 'niosForAES_output0_AES'
Info: output0_AES: "niosForAES" instantiated altera_avalon_pio "output0_AES"
Info: done: Starting RTL generation for module 'niosForAES_done'
Info: done:   Generation command is [exec C:/altera/13.1/quartus/bin/perl/bin/perl.exe -I C:/altera/13.1/quartus/bin/perl/lib -I C:/altera/13.1/quartus/sopc_builder/bin/europa -I C:/altera/13.1/quartus/sopc_builder/bin/perl_lib -I C:/altera/13.1/quartus/sopc_builder/bin -I C:/altera/13.1/quartus/../ip/altera/sopc_builder_ip/common -I C:/altera/13.1/quartus/../ip/altera/sopc_builder_ip/altera_avalon_pio -- C:/altera/13.1/quartus/../ip/altera/sopc_builder_ip/altera_avalon_pio/generate_rtl.pl --name=niosForAES_done --dir=C:/Users/YOGABU~1/AppData/Local/Temp/alt6770_716670426077522120.dir/0008_done_gen/ --quartus_dir=C:/altera/13.1/quartus --verilog --config=C:/Users/YOGABU~1/AppData/Local/Temp/alt6770_716670426077522120.dir/0008_done_gen//niosForAES_done_component_configuration.pl  --do_build_sim=0  ]
Info: done: Done RTL generation for module 'niosForAES_done'
Info: done: "niosForAES" instantiated altera_avalon_pio "done"
Info: pipeline_bridge_swap_transform: After transform: 66 modules, 222 connections
Info: No custom instruction connections, skipping transform 
Info: merlin_initial_interconnect_transform: After transform: 0 modules, 0 connections
Info: No Avalon connections, skipping transform 
Info: merlin_hierarchy_transform: After transform: 66 modules, 222 connections
Info: merlin_initial_interconnect_transform: After transform: 0 modules, 0 connections
Info: No Avalon connections, skipping transform 
Info: merlin_hierarchy_transform: After transform: 66 modules, 222 connections
Info: merlin_initial_interconnect_transform: After transform: 0 modules, 0 connections
Info: No Avalon connections, skipping transform 
Info: merlin_hierarchy_transform: After transform: 66 modules, 222 connections
Info: merlin_initial_interconnect_transform: After transform: 0 modules, 0 connections
Info: No Avalon connections, skipping transform 
Info: merlin_hierarchy_transform: After transform: 66 modules, 222 connections
Info: merlin_initial_interconnect_transform: After transform: 0 modules, 0 connections
Info: No Avalon connections, skipping transform 
Info: merlin_hierarchy_transform: After transform: 66 modules, 222 connections
Info: merlin_initial_interconnect_transform: After transform: 0 modules, 0 connections
Info: No Avalon connections, skipping transform 
Info: merlin_hierarchy_transform: After transform: 66 modules, 222 connections
Info: merlin_initial_interconnect_transform: After transform: 0 modules, 0 connections
Info: No Avalon connections, skipping transform 
Info: merlin_hierarchy_transform: After transform: 66 modules, 222 connections
Info: merlin_initial_interconnect_transform: After transform: 0 modules, 0 connections
Info: No Avalon connections, skipping transform 
Info: merlin_hierarchy_transform: After transform: 66 modules, 222 connections
Info: merlin_initial_interconnect_transform: After transform: 0 modules, 0 connections
Info: No Avalon connections, skipping transform 
Info: merlin_hierarchy_transform: After transform: 66 modules, 222 connections
Info: merlin_initial_interconnect_transform: After transform: 0 modules, 0 connections
Info: No Avalon connections, skipping transform 
Info: merlin_hierarchy_transform: After transform: 66 modules, 222 connections
Info: merlin_initial_interconnect_transform: After transform: 0 modules, 0 connections
Info: No Avalon connections, skipping transform 
Info: merlin_hierarchy_transform: After transform: 66 modules, 222 connections
Info: mm_interconnect_0: "niosForAES" instantiated altera_merlin_interconnect_wrapper "mm_interconnect_0"
Info: irq_mapper: "niosForAES" instantiated altera_irq_mapper "irq_mapper"
Info: rst_controller: "niosForAES" instantiated altera_reset_controller "rst_controller"
Info: niosProcessorAES_instruction_master_translator: "mm_interconnect_0" instantiated altera_merlin_master_translator "niosProcessorAES_instruction_master_translator"
Info: niosProcessorAES_jtag_debug_module_translator: "mm_interconnect_0" instantiated altera_merlin_slave_translator "niosProcessorAES_jtag_debug_module_translator"
Info: niosProcessorAES_instruction_master_translator_avalon_universal_master_0_agent: "mm_interconnect_0" instantiated altera_merlin_master_agent "niosProcessorAES_instruction_master_translator_avalon_universal_master_0_agent"
Info: niosProcessorAES_jtag_debug_module_translator_avalon_universal_slave_0_agent: "mm_interconnect_0" instantiated altera_merlin_slave_agent "niosProcessorAES_jtag_debug_module_translator_avalon_universal_slave_0_agent"
Info: niosProcessorAES_jtag_debug_module_translator_avalon_universal_slave_0_agent_rsp_fifo: "mm_interconnect_0" instantiated altera_avalon_sc_fifo "niosProcessorAES_jtag_debug_module_translator_avalon_universal_slave_0_agent_rsp_fifo"
Info: addr_router: "mm_interconnect_0" instantiated altera_merlin_router "addr_router"
Info: addr_router_001: "mm_interconnect_0" instantiated altera_merlin_router "addr_router_001"
Info: id_router: "mm_interconnect_0" instantiated altera_merlin_router "id_router"
Info: id_router_002: "mm_interconnect_0" instantiated altera_merlin_router "id_router_002"
Info: cmd_xbar_demux: "mm_interconnect_0" instantiated altera_merlin_demultiplexer "cmd_xbar_demux"
Info: cmd_xbar_demux_001: "mm_interconnect_0" instantiated altera_merlin_demultiplexer "cmd_xbar_demux_001"
Info: cmd_xbar_mux: "mm_interconnect_0" instantiated altera_merlin_multiplexer "cmd_xbar_mux"
Info: cmd_xbar_mux_002: "mm_interconnect_0" instantiated altera_merlin_multiplexer "cmd_xbar_mux_002"
Info: Reusing file F:/Dropbox/Dropbox/Skripsi/NIOSAESALTERAENKRIPSI/niosForAES/synthesis/submodules/altera_merlin_arbitrator.sv
Info: rsp_xbar_demux_002: "mm_interconnect_0" instantiated altera_merlin_demultiplexer "rsp_xbar_demux_002"
Info: rsp_xbar_mux: "mm_interconnect_0" instantiated altera_merlin_multiplexer "rsp_xbar_mux"
Info: Reusing file F:/Dropbox/Dropbox/Skripsi/NIOSAESALTERAENKRIPSI/niosForAES/synthesis/submodules/altera_merlin_arbitrator.sv
Info: rsp_xbar_mux_001: "mm_interconnect_0" instantiated altera_merlin_multiplexer "rsp_xbar_mux_001"
Info: Reusing file F:/Dropbox/Dropbox/Skripsi/NIOSAESALTERAENKRIPSI/niosForAES/synthesis/submodules/altera_merlin_arbitrator.sv
Info: niosForAES: Done "niosForAES" with 28 modules, 43 files, 1145089 bytes
Info: ip-generate succeeded.
Info: Finished: Create HDL design files for synthesis
